2020-03-05T21:16:42+00:00 CRITICAL Uncaught Error: Call to undefined function set() in I:\xampp\htdocs\reefshop\wp-content\themes\page-builder-framework-child\functions.php:110
Stack trace:
#0 I:\xampp\htdocs\reefshop\wp-includes\class-wp-hook.php(288): switch_gatway_by_applied_coupons(Array)
#1 I:\xampp\htdocs\reefshop\wp-includes\plugin.php(206): WP_Hook->apply_filters(Array, Array)
#2 I:\xampp\htdocs\reefshop\wp-content\plugins\woocommerce\includes\class-wc-payment-gateways.php(160): apply_filters('woocommerce_ava...', Array)
#3 I:\xampp\htdocs\reefshop\wp-content\plugins\woocommerce\includes\wc-template-functions.php(2224): WC_Payment_Gateways->get_available_payment_gateways()
#4 I:\xampp\htdocs\reefshop\wp-content\plugins\woocommerce\includes\class-wc-ajax.php(364): woocommerce_checkout_payment()
#5 I:\xampp\htdocs\reefshop\wp-includes\class-wp-hook.php(288): WC_AJAX::update_order_review('')
#6 I:\xampp\htdocs\reefshop\wp-includes\class-wp-hook.php(312): WP_Hook->apply_filters('', Array)
#7 I:\xampp\htdocs\reefshop\wp-includes\plugin.php( בקובץ I:\xampp\htdocs\reefshop\wp-content\themes\page-builder-framework-child\functions.php בשורה 110

2020-03-05T21:17:02+00:00 CRITICAL Uncaught Error: Call to undefined function set() in I:\xampp\htdocs\reefshop\wp-content\themes\page-builder-framework-child\functions.php:110
Stack trace:
#0 I:\xampp\htdocs\reefshop\wp-includes\class-wp-hook.php(288): switch_gatway_by_applied_coupons(Array)
#1 I:\xampp\htdocs\reefshop\wp-includes\plugin.php(206): WP_Hook->apply_filters(Array, Array)
#2 I:\xampp\htdocs\reefshop\wp-content\plugins\woocommerce\includes\class-wc-payment-gateways.php(160): apply_filters('woocommerce_ava...', Array)
#3 I:\xampp\htdocs\reefshop\wp-content\plugins\woocommerce\includes\wc-template-functions.php(3678): WC_Payment_Gateways->get_available_payment_gateways()
#4 I:\xampp\htdocs\reefshop\wp-includes\class-wp-hook.php(288): wc_get_pay_buttons('')
#5 I:\xampp\htdocs\reefshop\wp-includes\class-wp-hook.php(312): WP_Hook->apply_filters('', Array)
#6 I:\xampp\htdocs\reefshop\wp-includes\plugin.php(478): WP_Hook->do_action(Array)
#7 I:\xampp\htdocs\reefshop\wp-content\plugins\woocommerce\templates\checkout\form-checkout.php(36):  בקובץ I:\xampp\htdocs\reefshop\wp-content\themes\page-builder-framework-child\functions.php בשורה 110

2020-03-05T21:19:43+00:00 CRITICAL syntax error, unexpected end of file בקובץ I:\xampp\htdocs\reefshop\wp-content\themes\page-builder-framework-child\functions.php בשורה 325

2020-03-05T21:19:49+00:00 CRITICAL syntax error, unexpected end of file בקובץ I:\xampp\htdocs\reefshop\wp-content\themes\page-builder-framework-child\functions.php בשורה 325

2020-03-05T21:20:39+00:00 CRITICAL syntax error, unexpected end of file בקובץ I:\xampp\htdocs\reefshop\wp-content\themes\page-builder-framework-child\functions.php בשורה 325

2020-03-05T21:52:31+00:00 CRITICAL Uncaught Error: Unsupported operand types in I:\xampp\htdocs\reefshop\wp-content\themes\page-builder-framework-child\functions.php:118
Stack trace:
#0 I:\xampp\htdocs\reefshop\wp-includes\class-wp-hook.php(288): switch_gatway_by_applied_coupons(Array)
#1 I:\xampp\htdocs\reefshop\wp-includes\plugin.php(206): WP_Hook->apply_filters(Array, Array)
#2 I:\xampp\htdocs\reefshop\wp-content\plugins\woocommerce\includes\class-wc-payment-gateways.php(160): apply_filters('woocommerce_ava...', Array)
#3 I:\xampp\htdocs\reefshop\wp-content\plugins\woocommerce\includes\wc-template-functions.php(2224): WC_Payment_Gateways->get_available_payment_gateways()
#4 I:\xampp\htdocs\reefshop\wp-content\plugins\woocommerce\includes\class-wc-ajax.php(364): woocommerce_checkout_payment()
#5 I:\xampp\htdocs\reefshop\wp-includes\class-wp-hook.php(288): WC_AJAX::update_order_review('')
#6 I:\xampp\htdocs\reefshop\wp-includes\class-wp-hook.php(312): WP_Hook->apply_filters('', Array)
#7 I:\xampp\htdocs\reefshop\wp-includes\plugin.php(478): W בקובץ I:\xampp\htdocs\reefshop\wp-content\themes\page-builder-framework-child\functions.php בשורה 118

2020-03-05T22:00:27+00:00 CRITICAL Uncaught Error: Call to undefined method WC_Payment_Gateways::set_available_payment_gateways() in I:\xampp\htdocs\reefshop\wp-content\themes\page-builder-framework-child\functions.php:117
Stack trace:
#0 I:\xampp\htdocs\reefshop\wp-includes\class-wp-hook.php(288): switch_gatway_by_applied_coupons(Array)
#1 I:\xampp\htdocs\reefshop\wp-includes\plugin.php(206): WP_Hook->apply_filters(Array, Array)
#2 I:\xampp\htdocs\reefshop\wp-content\plugins\woocommerce\includes\class-wc-payment-gateways.php(160): apply_filters('woocommerce_ava...', Array)
#3 I:\xampp\htdocs\reefshop\wp-content\plugins\woocommerce\includes\wc-template-functions.php(3678): WC_Payment_Gateways->get_available_payment_gateways()
#4 I:\xampp\htdocs\reefshop\wp-includes\class-wp-hook.php(288): wc_get_pay_buttons('')
#5 I:\xampp\htdocs\reefshop\wp-includes\class-wp-hook.php(312): WP_Hook->apply_filters('', Array)
#6 I:\xampp\htdocs\reefshop\wp-includes\plugin.php(478): WP_Hook->do_action(Array)
#7 I:\xampp\htdocs\reefshop\wp-content\plugins\woocomme בקובץ I:\xampp\htdocs\reefshop\wp-content\themes\page-builder-framework-child\functions.php בשורה 117

2020-03-05T22:00:41+00:00 CRITICAL Uncaught Error: Call to undefined method WC_Payment_Gateways::set_available_payment_gateways() in I:\xampp\htdocs\reefshop\wp-content\themes\page-builder-framework-child\functions.php:117
Stack trace:
#0 I:\xampp\htdocs\reefshop\wp-includes\class-wp-hook.php(288): switch_gatway_by_applied_coupons(Array)
#1 I:\xampp\htdocs\reefshop\wp-includes\plugin.php(206): WP_Hook->apply_filters(Array, Array)
#2 I:\xampp\htdocs\reefshop\wp-content\plugins\woocommerce\includes\class-wc-payment-gateways.php(160): apply_filters('woocommerce_ava...', Array)
#3 I:\xampp\htdocs\reefshop\wp-content\plugins\woocommerce\includes\wc-template-functions.php(3678): WC_Payment_Gateways->get_available_payment_gateways()
#4 I:\xampp\htdocs\reefshop\wp-includes\class-wp-hook.php(288): wc_get_pay_buttons('')
#5 I:\xampp\htdocs\reefshop\wp-includes\class-wp-hook.php(312): WP_Hook->apply_filters('', Array)
#6 I:\xampp\htdocs\reefshop\wp-includes\plugin.php(478): WP_Hook->do_action(Array)
#7 I:\xampp\htdocs\reefshop\wp-content\plugins\woocomme בקובץ I:\xampp\htdocs\reefshop\wp-content\themes\page-builder-framework-child\functions.php בשורה 117

2020-03-05T22:01:49+00:00 CRITICAL Uncaught Error: Call to undefined method WC_Payment_Gateways::set_available_payment_gateways() in I:\xampp\htdocs\reefshop\wp-content\themes\page-builder-framework-child\functions.php:116
Stack trace:
#0 I:\xampp\htdocs\reefshop\wp-includes\class-wp-hook.php(288): switch_gatway_by_applied_coupons(Array)
#1 I:\xampp\htdocs\reefshop\wp-includes\plugin.php(206): WP_Hook->apply_filters(Array, Array)
#2 I:\xampp\htdocs\reefshop\wp-content\plugins\woocommerce\includes\class-wc-payment-gateways.php(160): apply_filters('woocommerce_ava...', Array)
#3 I:\xampp\htdocs\reefshop\wp-content\plugins\woocommerce\includes\wc-template-functions.php(3678): WC_Payment_Gateways->get_available_payment_gateways()
#4 I:\xampp\htdocs\reefshop\wp-includes\class-wp-hook.php(288): wc_get_pay_buttons('')
#5 I:\xampp\htdocs\reefshop\wp-includes\class-wp-hook.php(312): WP_Hook->apply_filters('', Array)
#6 I:\xampp\htdocs\reefshop\wp-includes\plugin.php(478): WP_Hook->do_action(Array)
#7 I:\xampp\htdocs\reefshop\wp-content\plugins\woocomme בקובץ I:\xampp\htdocs\reefshop\wp-content\themes\page-builder-framework-child\functions.php בשורה 116

2020-03-05T22:02:01+00:00 CRITICAL Uncaught Error: Call to undefined method WC_Payment_Gateways::set_available_payment_gateways() in I:\xampp\htdocs\reefshop\wp-content\themes\page-builder-framework-child\functions.php:116
Stack trace:
#0 I:\xampp\htdocs\reefshop\wp-includes\class-wp-hook.php(288): switch_gatway_by_applied_coupons(Array)
#1 I:\xampp\htdocs\reefshop\wp-includes\plugin.php(206): WP_Hook->apply_filters(Array, Array)
#2 I:\xampp\htdocs\reefshop\wp-content\plugins\woocommerce\includes\class-wc-payment-gateways.php(160): apply_filters('woocommerce_ava...', Array)
#3 I:\xampp\htdocs\reefshop\wp-content\plugins\woocommerce\includes\wc-template-functions.php(3678): WC_Payment_Gateways->get_available_payment_gateways()
#4 I:\xampp\htdocs\reefshop\wp-includes\class-wp-hook.php(288): wc_get_pay_buttons('')
#5 I:\xampp\htdocs\reefshop\wp-includes\class-wp-hook.php(312): WP_Hook->apply_filters('', Array)
#6 I:\xampp\htdocs\reefshop\wp-includes\plugin.php(478): WP_Hook->do_action(Array)
#7 I:\xampp\htdocs\reefshop\wp-content\plugins\woocomme בקובץ I:\xampp\htdocs\reefshop\wp-content\themes\page-builder-framework-child\functions.php בשורה 116

2020-03-05T22:15:59+00:00 CRITICAL syntax error, unexpected end of file בקובץ I:\xampp\htdocs\reefshop\wp-content\themes\page-builder-framework-child\functions.php בשורה 333

2020-03-05T22:16:09+00:00 CRITICAL syntax error, unexpected end of file בקובץ I:\xampp\htdocs\reefshop\wp-content\themes\page-builder-framework-child\functions.php בשורה 333

2020-03-05T22:17:15+00:00 CRITICAL syntax error, unexpected end of file בקובץ I:\xampp\htdocs\reefshop\wp-content\themes\page-builder-framework-child\functions.php בשורה 329

2020-03-05T22:17:19+00:00 CRITICAL syntax error, unexpected end of file בקובץ I:\xampp\htdocs\reefshop\wp-content\themes\page-builder-framework-child\functions.php בשורה 329

2020-03-05T22:17:38+00:00 CRITICAL syntax error, unexpected end of file בקובץ I:\xampp\htdocs\reefshop\wp-content\themes\page-builder-framework-child\functions.php בשורה 329

2020-03-05T22:17:39+00:00 CRITICAL syntax error, unexpected end of file בקובץ I:\xampp\htdocs\reefshop\wp-content\themes\page-builder-framework-child\functions.php בשורה 329

2020-03-05T22:17:43+00:00 CRITICAL syntax error, unexpected end of file בקובץ I:\xampp\htdocs\reefshop\wp-content\themes\page-builder-framework-child\functions.php בשורה 329

2020-03-05T22:17:46+00:00 CRITICAL syntax error, unexpected end of file בקובץ I:\xampp\htdocs\reefshop\wp-content\themes\page-builder-framework-child\functions.php בשורה 329

2020-03-05T22:17:50+00:00 CRITICAL syntax error, unexpected end of file בקובץ I:\xampp\htdocs\reefshop\wp-content\themes\page-builder-framework-child\functions.php בשורה 329

2020-03-05T22:17:54+00:00 CRITICAL syntax error, unexpected end of file בקובץ I:\xampp\htdocs\reefshop\wp-content\themes\page-builder-framework-child\functions.php בשורה 329

2020-03-05T22:18:31+00:00 CRITICAL syntax error, unexpected end of file בקובץ I:\xampp\htdocs\reefshop\wp-content\themes\page-builder-framework-child\functions.php בשורה 329

2020-03-05T22:18:38+00:00 CRITICAL syntax error, unexpected end of file בקובץ I:\xampp\htdocs\reefshop\wp-content\themes\page-builder-framework-child\functions.php בשורה 329

2020-03-05T22:18:40+00:00 CRITICAL syntax error, unexpected end of file בקובץ I:\xampp\htdocs\reefshop\wp-content\themes\page-builder-framework-child\functions.php בשורה 329

2020-03-05T22:18:43+00:00 CRITICAL syntax error, unexpected end of file בקובץ I:\xampp\htdocs\reefshop\wp-content\themes\page-builder-framework-child\functions.php בשורה 329

2020-03-05T22:18:46+00:00 CRITICAL syntax error, unexpected end of file בקובץ I:\xampp\htdocs\reefshop\wp-content\themes\page-builder-framework-child\functions.php בשורה 319

2020-03-05T22:18:49+00:00 CRITICAL syntax error, unexpected end of file בקובץ I:\xampp\htdocs\reefshop\wp-content\themes\page-builder-framework-child\functions.php בשורה 319

2020-03-05T22:18:50+00:00 CRITICAL syntax error, unexpected end of file בקובץ I:\xampp\htdocs\reefshop\wp-content\themes\page-builder-framework-child\functions.php בשורה 319

